<svg width="78" height="78" viewBox="0 0 78 78" fill="none" xmlns="http://www.w3.org/2000/svg">
<circle cx="39" cy="39" r="39" transform="rotate(180 39 39)" fill="white" fill-opacity="0.3"/>
<path d="M27.1106 40.2486L41.351 54.4888C41.6804 54.8184 42.1201 55 42.5889 55C43.0577 55 43.4973 54.8184 43.8267 54.4888L44.8754 53.4403C45.5578 52.7572 45.5578 51.6468 44.8754 50.9647L32.9174 39.0066L44.8887 27.0354C45.2181 26.7057 45.3999 26.2663 45.3999 25.7978C45.3999 25.3287 45.2181 24.8893 44.8887 24.5594L43.84 23.5112C43.5104 23.1816 43.0709 23 42.6021 23C42.1333 23 41.6937 23.1816 41.3643 23.5112L27.1106 37.7644C26.7805 38.095 26.5991 38.5365 26.6002 39.0059C26.5991 39.477 26.7805 39.9182 27.1106 40.2486Z" fill="white"/>
</svg>
