<svg width="20" height="20" viewBox="0 0 20 20" fill="none" xmlns="http://www.w3.org/2000/svg">
<g clip-path="url(#clip0_418_916)">
<path d="M9.99998 0C4.47501 0 0 4.47501 0 9.99998C0 15.5249 4.47501 20 9.99998 20C15.5249 20 20 15.525 20 9.99998C20 4.47497 15.525 0 9.99998 0ZM11 15H8.99999V8.99999H11V15ZM11 6.99998H8.99999V4.99996H11V6.99998Z" fill="#9DB6FF"/>
</g>
<defs>
<clipPath id="clip0_418_916">
<rect width="20" height="20" fill="white"/>
</clipPath>
</defs>
</svg>
